==================================================
=----------=-K-=------------=-K-=----------------=
=----------=---=------------=---=----------------=
=----------=---=------------=---=----------------=
=----------=---=------------=---=----------------=
=----------=---=------------=---=----------------=
=------------------------------------------------=
=------------------------------------------------=
=---------------------=--------------------------=
=---------------------=--------------------------=
=---------------------=--------------------------=
=---------------------=--------------------------=
=------------------------------------------------=
=------------------------------------------------=
=----------=---=-------------=---=------=--------=
=----------=---=-------------=---=------=-------==
=----------=---=-------------=---=------=------=8=
=----------=---=-------------=---=--------------==
=----------=-K-=-------------=-K-=---------------=
==================================================
